{
  "name": "quick-insert",
  "title": "Quick Insert - Search Widget",
  "description": "Quickly find actors, items, spells etc. and insert them wherever you need them right now - the map, character sheets, roll tables, journals, you name it. <br> <ul><li>Open with <kbd>Ctrl</kbd> + <kbd>Space</kbd> (default)</li> <li>Hold <kbd>Shift</kbd> to select more than one result</li> <li>Drag and drop directly from the search results</li></ul>",
  "version": "",
  "author": "Sunspots",
  "scripts": [
    "lib/settings-extender/settings-extender.js",
    "lib/compendium-index-guard.js"
  ],
  "esmodules": [
    "quick-insert.js"
  ],
  "styles": [
    "./quick-insert.css"
  ],
  "packs": [],
  "languages": [
    {
      "lang": "en",
      "name": "English",
      "path": "lang/en.json"
    },
    {
      "lang": "es",
      "name": "Español",
      "path": "lang/es.json"
    }
  ],
  "minimumCoreVersion": "0.6.5",
  "compatibleCoreVersion": "0.7.9",
  "url": "",
  "manifest": "",
  "download": "",
  "license": "",
  "readme": "",
  "bugs": "",
  "changelog": "https://gitlab.com/fvtt-modules-lab/quick-insert/-/blob/master/CHANGELOG.md"
}